yellow open   new_logstash-2016.07.10   5   1        998            0      719kb          719kb 
yellow open   new_logstash-2016.08.05   5   1      71646         4310       37mb           37mb 
yellow open   new_logstash-2016.08.06   5   1      47213            0     14.8mb         14.8mb 
yellow open   new_logstash-2016.08.07   5   1      53278            0     16.7mb         16.7mb 
yellow open   new_logstash-2016.08.08   5   1      54451            0     18.2mb         18.2mb 
yellow open   new_logstash-2016.08.09   5   1      78778        58224     67.5mb         67.5mb 
yellow open   new_logstash-2016.08.10   5   1      55626            0     19.4mb         19.4mb 
yellow open   new_logstash-2016.08.11   5   1      83348        73944     79.6mb         79.6mb 
yellow open   new_logstash-2016.08.12   5   1      78428            0       41mb           41mb 
yellow open   new_logstash-2016.08.13   5   1      75212            0     37.6mb         37.6mb 
yellow open   new_logstash-2016.08.14   5   1      56182            0     19.7mb         19.7mb 
yellow open   new_logstash-2016.08.15   5   1      94085        21185       58mb           58mb 
yellow open   new_logstash-2016.08.16   5   1      56448            0     19.7mb         19.7mb 
yellow open   new_logstash-2016.08.17   5   1      80540        41802     59.6mb         59.6mb 
yellow open   new_logstash-2016.08.18   5   1      76056            0     38.3mb         38.3mb 
yellow open   new_logstash-2016.08.19   5   1      54199            0     18.2mb         18.2mb 
yellow open   new_logstash-2016.08.20   5   1      70477            0     33.6mb         33.6mb 
yellow open   new_logstash-2016.08.21   5   1      52615            0     16.4mb         16.4mb 
yellow open   new_logstash-2016.08.22   5   1      54544            0     18.9mb         18.9mb 
yellow open   new_logstash-2016.08.23   5   1      76872        29110     50.6mb         50.6mb 
yellow open   new_logstash-2016.08.24   5   1      55199            0     18.8mb         18.8mb 
yellow open   new_logstash-2016.08.25   5   1     106433        49865     81.8mb         81.8mb 
yellow open   new_logstash-2016.08.26   5   1      58058            0     20.3mb         20.3mb 
yellow open   new_logstash-2016.08.27   5   1      96888        39405     68.5mb         68.5mb 
yellow open   new_logstash-2016.08.28   5   1      87696         8917     47.7mb         47.7mb 
yellow open   new_logstash-2016.08.29   5   1     101823        51782     82.1mb         82.1mb 
yellow open   new_logstash-2016.08.30   5   1     121465        54580     88.6mb         88.6mb 
yellow open   new_logstash-2016.08.31   5   1      57164            0     19.7mb         19.7mb 
yellow open   new_logstash-2016.09.02   5   1      46512            0     16.6mb         16.6mb 
yellow open   new_logstash-2016.09.01   5   1      83410        20104     50.7mb         50.7mb 
yellow open   new_logstash-2016.09.04   5   1       7575            0      4.5mb          4.5mb 
yellow open   new_logstash-2016.09.03   5   1      68995            0     36.6mb         36.6mb 
